0.452447 -0.157482 0 
0 0 0 
0 -0.288707 0.480753 
0 0 0 
0 0.388165 0.108342 
-0.3562 0.0928288 0 
0.327216 0.258376 0.447807 
0 0 -0.0192425 
0 0 0 
0 0.0333169 0 
0 0 0 
0 -0.436499 0 
0.171842 0 0.446486 
0 -0.157986 -0.356363 
-0.0993124 0 -0.341304 
-0.20803 0 0.113993 
0 0 -0.0265989 
-0.382864 -0.411204 -0.0623218 
0 0 0.407991 
-0.443994 0 0 
-0.376161 0 0 
-0.145101 0.183223 0 
0 0.123476 0 
0 0 0 
-0.284616 0 0 
0 -0.399011 0 
-0.28949 0 -0.233484 
0 0.164535 -0.104807 
0 0.250092 0 
0 -0.425845 -0.389763 
0 0 0 
0 0 -0.367337 
0 -0.104834 0.196616 
0 0 0.298954 
0 0 -0.263266 
0 -0.100322 -0.424024 
0 0.062737 0 
0.172974 0 0 
0.388771 0 -0.478567 
0 0 0 
0.303638 0.296672 0 
-0.13113 0 0.105604 
-0.240839 -0.213256 0.377525 
0 0.323924 0.0708479 
-0.310458 0 0.0911747 
0.470266 0 0 
-0.0220202 0.0904967 0 
0 0 0 
0.0263588 0 0 
-0.245593 -0.379343 -0.0711252 
