[
{
  "directory": "/workspace/ros_ws/build/motor_fault_estimation/gtest/googlemock",
  "command": "/usr/bin/c++  -DGTEST_CREATE_SHARED_LIBRARY=1 -Dgmock_main_EXPORTS -I/usr/src/googletest/googlemock/include -I/usr/src/googletest/googlemock -I/usr/src/googletest/googletest/include -I/usr/src/googletest/googletest  -fPIC    -Wall -Wshadow -DGTEST_HAS_PTHREAD=1 -fexceptions -Wextra -Wno-unused-parameter -Wno-missing-field-initializers -o CMakeFiles/gmock_main.dir/__/googletest/src/gtest-all.cc.o -c /usr/src/googletest/googletest/src/gtest-all.cc",
  "file": "/usr/src/googletest/googletest/src/gtest-all.cc"
},
{
  "directory": "/workspace/ros_ws/build/motor_fault_estimation/gtest/googlemock",
  "command": "/usr/bin/c++  -DGTEST_CREATE_SHARED_LIBRARY=1 -Dgmock_main_EXPORTS -I/usr/src/googletest/googlemock/include -I/usr/src/googletest/googlemock -I/usr/src/googletest/googletest/include -I/usr/src/googletest/googletest  -fPIC    -Wall -Wshadow -DGTEST_HAS_PTHREAD=1 -fexceptions -Wextra -Wno-unused-parameter -Wno-missing-field-initializers -o CMakeFiles/gmock_main.dir/src/gmock-all.cc.o -c /usr/src/googletest/googlemock/src/gmock-all.cc",
  "file": "/usr/src/googletest/googlemock/src/gmock-all.cc"
},
{
  "directory": "/workspace/ros_ws/build/motor_fault_estimation/gtest/googlemock",
  "command": "/usr/bin/c++  -DGTEST_CREATE_SHARED_LIBRARY=1 -Dgmock_main_EXPORTS -I/usr/src/googletest/googlemock/include -I/usr/src/googletest/googlemock -I/usr/src/googletest/googletest/include -I/usr/src/googletest/googletest  -fPIC    -Wall -Wshadow -DGTEST_HAS_PTHREAD=1 -fexceptions -Wextra -Wno-unused-parameter -Wno-missing-field-initializers -o CMakeFiles/gmock_main.dir/src/gmock_main.cc.o -c /usr/src/googletest/googlemock/src/gmock_main.cc",
  "file": "/usr/src/googletest/googlemock/src/gmock_main.cc"
},
{
  "directory": "/workspace/ros_ws/build/motor_fault_estimation/gtest/googlemock",
  "command": "/usr/bin/c++  -DGTEST_CREATE_SHARED_LIBRARY=1 -Dgmock_EXPORTS -I/usr/src/googletest/googlemock/include -I/usr/src/googletest/googlemock -I/usr/src/googletest/googletest/include -I/usr/src/googletest/googletest  -fPIC    -Wall -Wshadow -DGTEST_HAS_PTHREAD=1 -fexceptions -Wextra -Wno-unused-parameter -Wno-missing-field-initializers -o CMakeFiles/gmock.dir/__/googletest/src/gtest-all.cc.o -c /usr/src/googletest/googletest/src/gtest-all.cc",
  "file": "/usr/src/googletest/googletest/src/gtest-all.cc"
},
{
  "directory": "/workspace/ros_ws/build/motor_fault_estimation/gtest/googlemock",
  "command": "/usr/bin/c++  -DGTEST_CREATE_SHARED_LIBRARY=1 -Dgmock_EXPORTS -I/usr/src/googletest/googlemock/include -I/usr/src/googletest/googlemock -I/usr/src/googletest/googletest/include -I/usr/src/googletest/googletest  -fPIC    -Wall -Wshadow -DGTEST_HAS_PTHREAD=1 -fexceptions -Wextra -Wno-unused-parameter -Wno-missing-field-initializers -o CMakeFiles/gmock.dir/src/gmock-all.cc.o -c /usr/src/googletest/googlemock/src/gmock-all.cc",
  "file": "/usr/src/googletest/googlemock/src/gmock-all.cc"
},
{
  "directory": "/workspace/ros_ws/build/motor_fault_estimation/gtest/googlemock/gtest",
  "command": "/usr/bin/c++  -DGTEST_CREATE_SHARED_LIBRARY=1 -Dgtest_main_EXPORTS -I/usr/src/googletest/googletest/include -I/usr/src/googletest/googletest  -fPIC    -Wall -Wshadow -DGTEST_HAS_PTHREAD=1 -fexceptions -Wextra -Wno-unused-parameter -Wno-missing-field-initializers -o CMakeFiles/gtest_main.dir/src/gtest_main.cc.o -c /usr/src/googletest/googletest/src/gtest_main.cc",
  "file": "/usr/src/googletest/googletest/src/gtest_main.cc"
},
{
  "directory": "/workspace/ros_ws/build/motor_fault_estimation/gtest/googlemock/gtest",
  "command": "/usr/bin/c++  -DGTEST_CREATE_SHARED_LIBRARY=1 -Dgtest_EXPORTS -I/usr/src/googletest/googletest/include -I/usr/src/googletest/googletest  -fPIC    -Wall -Wshadow -DGTEST_HAS_PTHREAD=1 -fexceptions -Wextra -Wno-unused-parameter -Wno-missing-field-initializers -o CMakeFiles/gtest.dir/src/gtest-all.cc.o -c /usr/src/googletest/googletest/src/gtest-all.cc",
  "file": "/usr/src/googletest/googletest/src/gtest-all.cc"
},
{
  "directory": "/workspace/ros_ws/build/hexa_mpc",
  "command": "/usr/bin/c++  -DROSCONSOLE_BACKEND_LOG4CXX -DROS_BUILD_SHARED_LIBS=1 -DROS_PACKAGE_NAME=\\\"hexa_mpc\\\" -I/workspace/ros_ws/src/hexa_mpc/include -I/workspace/ros_ws/src/hexa_mpc/include/eigen3 -I/opt/ros/melodic/include -I/opt/ros/melodic/share/xmlrpcpp/cmake/../../../include/xmlrpcpp  -Wall -Wextra -O3 -msse2 -march=native   -pthread -o CMakeFiles/control.dir/src/control.cpp.o -c /workspace/ros_ws/src/hexa_mpc/src/control.cpp",
  "file": "/workspace/ros_ws/src/hexa_mpc/src/control.cpp"
},
{
  "directory": "/workspace/ros_ws/build/hexa_mpc",
  "command": "/usr/bin/c++  -DROSCONSOLE_BACKEND_LOG4CXX -DROS_BUILD_SHARED_LIBS=1 -DROS_PACKAGE_NAME=\\\"hexa_mpc\\\" -I/workspace/ros_ws/src/hexa_mpc/include -I/workspace/ros_ws/src/hexa_mpc/include/eigen3 -I/opt/ros/melodic/include -I/opt/ros/melodic/share/xmlrpcpp/cmake/../../../include/xmlrpcpp  -Wall -Wextra -O3 -msse2 -march=native   -pthread -o CMakeFiles/control.dir/src/bike.cpp.o -c /workspace/ros_ws/src/hexa_mpc/src/bike.cpp",
  "file": "/workspace/ros_ws/src/hexa_mpc/src/bike.cpp"
},
{
  "directory": "/workspace/ros_ws/build/hexa_mpc",
  "command": "/usr/bin/c++  -DROSCONSOLE_BACKEND_LOG4CXX -DROS_BUILD_SHARED_LIBS=1 -DROS_PACKAGE_NAME=\\\"hexa_mpc\\\" -I/workspace/ros_ws/src/hexa_mpc/include -I/workspace/ros_ws/src/hexa_mpc/include/eigen3 -I/opt/ros/melodic/include -I/opt/ros/melodic/share/xmlrpcpp/cmake/../../../include/xmlrpcpp  -Wall -Wextra -O3 -msse2 -march=native   -pthread -o CMakeFiles/control.dir/src/mpc.cpp.o -c /workspace/ros_ws/src/hexa_mpc/src/mpc.cpp",
  "file": "/workspace/ros_ws/src/hexa_mpc/src/mpc.cpp"
},
{
  "directory": "/workspace/ros_ws/build/hexa_mpc",
  "command": "/usr/bin/c++  -DROSCONSOLE_BACKEND_LOG4CXX -DROS_BUILD_SHARED_LIBS=1 -DROS_PACKAGE_NAME=\\\"hexa_mpc\\\" -I/workspace/ros_ws/src/hexa_mpc/include -I/workspace/ros_ws/src/hexa_mpc/include/eigen3 -I/opt/ros/melodic/include -I/opt/ros/melodic/share/xmlrpcpp/cmake/../../../include/xmlrpcpp  -Wall -Wextra -O3 -msse2 -march=native   -pthread -o CMakeFiles/control.dir/src/mpc2.cpp.o -c /workspace/ros_ws/src/hexa_mpc/src/mpc2.cpp",
  "file": "/workspace/ros_ws/src/hexa_mpc/src/mpc2.cpp"
},
{
  "directory": "/workspace/ros_ws/build/hexa_mpc",
  "command": "/usr/bin/c++  -DROSCONSOLE_BACKEND_LOG4CXX -DROS_BUILD_SHARED_LIBS=1 -DROS_PACKAGE_NAME=\\\"hexa_mpc\\\" -I/workspace/ros_ws/src/hexa_mpc/include -I/workspace/ros_ws/src/hexa_mpc/include/eigen3 -I/opt/ros/melodic/include -I/opt/ros/melodic/share/xmlrpcpp/cmake/../../../include/xmlrpcpp  -Wall -Wextra -O3 -msse2 -march=native   -pthread -o CMakeFiles/control.dir/src/aekf.cpp.o -c /workspace/ros_ws/src/hexa_mpc/src/aekf.cpp",
  "file": "/workspace/ros_ws/src/hexa_mpc/src/aekf.cpp"
},
{
  "directory": "/workspace/ros_ws/build/hexa_mpc",
  "command": "/usr/bin/c++  -DROSCONSOLE_BACKEND_LOG4CXX -DROS_BUILD_SHARED_LIBS=1 -DROS_PACKAGE_NAME=\\\"hexa_mpc\\\" -I/workspace/ros_ws/src/hexa_mpc/include -I/workspace/ros_ws/src/hexa_mpc/include/eigen3 -I/opt/ros/melodic/include -I/opt/ros/melodic/share/xmlrpcpp/cmake/../../../include/xmlrpcpp  -Wall -Wextra -O3 -msse2 -march=native   -pthread -o CMakeFiles/control.dir/src/hexacopter.cpp.o -c /workspace/ros_ws/src/hexa_mpc/src/hexacopter.cpp",
  "file": "/workspace/ros_ws/src/hexa_mpc/src/hexacopter.cpp"
},
{
  "directory": "/workspace/ros_ws/build/hexa_mpc",
  "command": "/usr/bin/c++  -DROSCONSOLE_BACKEND_LOG4CXX -DROS_BUILD_SHARED_LIBS=1 -DROS_PACKAGE_NAME=\\\"hexa_mpc\\\" -I/workspace/ros_ws/src/hexa_mpc/include -I/workspace/ros_ws/src/hexa_mpc/include/eigen3 -I/opt/ros/melodic/include -I/opt/ros/melodic/share/xmlrpcpp/cmake/../../../include/xmlrpcpp  -Wall -Wextra -O3 -msse2 -march=native   -pthread -o CMakeFiles/hexa_aekf_and_mpc_test_no_constraint.dir/tests/hexa_aekf_and_mpc_test_no_constraint.cpp.o -c /workspace/ros_ws/src/hexa_mpc/tests/hexa_aekf_and_mpc_test_no_constraint.cpp",
  "file": "/workspace/ros_ws/src/hexa_mpc/tests/hexa_aekf_and_mpc_test_no_constraint.cpp"
},
{
  "directory": "/workspace/ros_ws/build/hexa_mpc",
  "command": "/usr/bin/c++  -DROSCONSOLE_BACKEND_LOG4CXX -DROS_BUILD_SHARED_LIBS=1 -DROS_PACKAGE_NAME=\\\"hexa_mpc\\\" -I/workspace/ros_ws/src/hexa_mpc/include -I/workspace/ros_ws/src/hexa_mpc/include/eigen3 -I/opt/ros/melodic/include -I/opt/ros/melodic/share/xmlrpcpp/cmake/../../../include/xmlrpcpp  -Wall -Wextra -O3 -msse2 -march=native   -pthread -o CMakeFiles/hexa_aekf_and_mpc_test_no_constraint.dir/src/bike.cpp.o -c /workspace/ros_ws/src/hexa_mpc/src/bike.cpp",
  "file": "/workspace/ros_ws/src/hexa_mpc/src/bike.cpp"
},
{
  "directory": "/workspace/ros_ws/build/hexa_mpc",
  "command": "/usr/bin/c++  -DROSCONSOLE_BACKEND_LOG4CXX -DROS_BUILD_SHARED_LIBS=1 -DROS_PACKAGE_NAME=\\\"hexa_mpc\\\" -I/workspace/ros_ws/src/hexa_mpc/include -I/workspace/ros_ws/src/hexa_mpc/include/eigen3 -I/opt/ros/melodic/include -I/opt/ros/melodic/share/xmlrpcpp/cmake/../../../include/xmlrpcpp  -Wall -Wextra -O3 -msse2 -march=native   -pthread -o CMakeFiles/hexa_aekf_and_mpc_test_no_constraint.dir/src/mpc.cpp.o -c /workspace/ros_ws/src/hexa_mpc/src/mpc.cpp",
  "file": "/workspace/ros_ws/src/hexa_mpc/src/mpc.cpp"
},
{
  "directory": "/workspace/ros_ws/build/hexa_mpc",
  "command": "/usr/bin/c++  -DROSCONSOLE_BACKEND_LOG4CXX -DROS_BUILD_SHARED_LIBS=1 -DROS_PACKAGE_NAME=\\\"hexa_mpc\\\" -I/workspace/ros_ws/src/hexa_mpc/include -I/workspace/ros_ws/src/hexa_mpc/include/eigen3 -I/opt/ros/melodic/include -I/opt/ros/melodic/share/xmlrpcpp/cmake/../../../include/xmlrpcpp  -Wall -Wextra -O3 -msse2 -march=native   -pthread -o CMakeFiles/hexa_aekf_and_mpc_test_no_constraint.dir/src/mpc2.cpp.o -c /workspace/ros_ws/src/hexa_mpc/src/mpc2.cpp",
  "file": "/workspace/ros_ws/src/hexa_mpc/src/mpc2.cpp"
},
{
  "directory": "/workspace/ros_ws/build/hexa_mpc",
  "command": "/usr/bin/c++  -DROSCONSOLE_BACKEND_LOG4CXX -DROS_BUILD_SHARED_LIBS=1 -DROS_PACKAGE_NAME=\\\"hexa_mpc\\\" -I/workspace/ros_ws/src/hexa_mpc/include -I/workspace/ros_ws/src/hexa_mpc/include/eigen3 -I/opt/ros/melodic/include -I/opt/ros/melodic/share/xmlrpcpp/cmake/../../../include/xmlrpcpp  -Wall -Wextra -O3 -msse2 -march=native   -pthread -o CMakeFiles/hexa_aekf_and_mpc_test_no_constraint.dir/src/aekf.cpp.o -c /workspace/ros_ws/src/hexa_mpc/src/aekf.cpp",
  "file": "/workspace/ros_ws/src/hexa_mpc/src/aekf.cpp"
},
{
  "directory": "/workspace/ros_ws/build/hexa_mpc",
  "command": "/usr/bin/c++  -DROSCONSOLE_BACKEND_LOG4CXX -DROS_BUILD_SHARED_LIBS=1 -DROS_PACKAGE_NAME=\\\"hexa_mpc\\\" -I/workspace/ros_ws/src/hexa_mpc/include -I/workspace/ros_ws/src/hexa_mpc/include/eigen3 -I/opt/ros/melodic/include -I/opt/ros/melodic/share/xmlrpcpp/cmake/../../../include/xmlrpcpp  -Wall -Wextra -O3 -msse2 -march=native   -pthread -o CMakeFiles/hexa_aekf_and_mpc_test_no_constraint.dir/src/hexacopter.cpp.o -c /workspace/ros_ws/src/hexa_mpc/src/hexacopter.cpp",
  "file": "/workspace/ros_ws/src/hexa_mpc/src/hexacopter.cpp"
},
{
  "directory": "/workspace/ros_ws/build/hexa_mpc/gtest/googlemock",
  "command": "/usr/bin/c++  -DGTEST_CREATE_SHARED_LIBRARY=1 -Dgmock_main_EXPORTS -I/usr/src/googletest/googlemock/include -I/usr/src/googletest/googlemock -I/usr/src/googletest/googletest/include -I/usr/src/googletest/googletest  -Wall -Wextra -O3 -msse2 -march=native -fPIC   -Wall -Wextra -Wall -Wshadow -DGTEST_HAS_PTHREAD=1 -fexceptions -Wextra -Wno-unused-parameter -Wno-missing-field-initializers -o CMakeFiles/gmock_main.dir/__/googletest/src/gtest-all.cc.o -c /usr/src/googletest/googletest/src/gtest-all.cc",
  "file": "/usr/src/googletest/googletest/src/gtest-all.cc"
},
{
  "directory": "/workspace/ros_ws/build/hexa_mpc/gtest/googlemock",
  "command": "/usr/bin/c++  -DGTEST_CREATE_SHARED_LIBRARY=1 -Dgmock_main_EXPORTS -I/usr/src/googletest/googlemock/include -I/usr/src/googletest/googlemock -I/usr/src/googletest/googletest/include -I/usr/src/googletest/googletest  -Wall -Wextra -O3 -msse2 -march=native -fPIC   -Wall -Wextra -Wall -Wshadow -DGTEST_HAS_PTHREAD=1 -fexceptions -Wextra -Wno-unused-parameter -Wno-missing-field-initializers -o CMakeFiles/gmock_main.dir/src/gmock-all.cc.o -c /usr/src/googletest/googlemock/src/gmock-all.cc",
  "file": "/usr/src/googletest/googlemock/src/gmock-all.cc"
},
{
  "directory": "/workspace/ros_ws/build/hexa_mpc/gtest/googlemock",
  "command": "/usr/bin/c++  -DGTEST_CREATE_SHARED_LIBRARY=1 -Dgmock_main_EXPORTS -I/usr/src/googletest/googlemock/include -I/usr/src/googletest/googlemock -I/usr/src/googletest/googletest/include -I/usr/src/googletest/googletest  -Wall -Wextra -O3 -msse2 -march=native -fPIC   -Wall -Wextra -Wall -Wshadow -DGTEST_HAS_PTHREAD=1 -fexceptions -Wextra -Wno-unused-parameter -Wno-missing-field-initializers -o CMakeFiles/gmock_main.dir/src/gmock_main.cc.o -c /usr/src/googletest/googlemock/src/gmock_main.cc",
  "file": "/usr/src/googletest/googlemock/src/gmock_main.cc"
},
{
  "directory": "/workspace/ros_ws/build/hexa_mpc/gtest/googlemock",
  "command": "/usr/bin/c++  -DGTEST_CREATE_SHARED_LIBRARY=1 -Dgmock_EXPORTS -I/usr/src/googletest/googlemock/include -I/usr/src/googletest/googlemock -I/usr/src/googletest/googletest/include -I/usr/src/googletest/googletest  -Wall -Wextra -O3 -msse2 -march=native -fPIC   -Wall -Wextra -Wall -Wshadow -DGTEST_HAS_PTHREAD=1 -fexceptions -Wextra -Wno-unused-parameter -Wno-missing-field-initializers -o CMakeFiles/gmock.dir/__/googletest/src/gtest-all.cc.o -c /usr/src/googletest/googletest/src/gtest-all.cc",
  "file": "/usr/src/googletest/googletest/src/gtest-all.cc"
},
{
  "directory": "/workspace/ros_ws/build/hexa_mpc/gtest/googlemock",
  "command": "/usr/bin/c++  -DGTEST_CREATE_SHARED_LIBRARY=1 -Dgmock_EXPORTS -I/usr/src/googletest/googlemock/include -I/usr/src/googletest/googlemock -I/usr/src/googletest/googletest/include -I/usr/src/googletest/googletest  -Wall -Wextra -O3 -msse2 -march=native -fPIC   -Wall -Wextra -Wall -Wshadow -DGTEST_HAS_PTHREAD=1 -fexceptions -Wextra -Wno-unused-parameter -Wno-missing-field-initializers -o CMakeFiles/gmock.dir/src/gmock-all.cc.o -c /usr/src/googletest/googlemock/src/gmock-all.cc",
  "file": "/usr/src/googletest/googlemock/src/gmock-all.cc"
},
{
  "directory": "/workspace/ros_ws/build/hexa_mpc/gtest/googlemock/gtest",
  "command": "/usr/bin/c++  -DGTEST_CREATE_SHARED_LIBRARY=1 -Dgtest_main_EXPORTS -I/usr/src/googletest/googletest/include -I/usr/src/googletest/googletest  -Wall -Wextra -O3 -msse2 -march=native -fPIC   -Wall -Wextra -Wall -Wshadow -DGTEST_HAS_PTHREAD=1 -fexceptions -Wextra -Wno-unused-parameter -Wno-missing-field-initializers -o CMakeFiles/gtest_main.dir/src/gtest_main.cc.o -c /usr/src/googletest/googletest/src/gtest_main.cc",
  "file": "/usr/src/googletest/googletest/src/gtest_main.cc"
},
{
  "directory": "/workspace/ros_ws/build/hexa_mpc/gtest/googlemock/gtest",
  "command": "/usr/bin/c++  -DGTEST_CREATE_SHARED_LIBRARY=1 -Dgtest_EXPORTS -I/usr/src/googletest/googletest/include -I/usr/src/googletest/googletest  -Wall -Wextra -O3 -msse2 -march=native -fPIC   -Wall -Wextra -Wall -Wshadow -DGTEST_HAS_PTHREAD=1 -fexceptions -Wextra -Wno-unused-parameter -Wno-missing-field-initializers -o CMakeFiles/gtest.dir/src/gtest-all.cc.o -c /usr/src/googletest/googletest/src/gtest-all.cc",
  "file": "/usr/src/googletest/googletest/src/gtest-all.cc"
},
{
  "directory": "/workspace/ros_ws/build/eit_playground",
  "command": "/usr/bin/c++  -DROSCONSOLE_BACKEND_LOG4CXX -DROS_BUILD_SHARED_LIBS=1 -DROS_PACKAGE_NAME=\\\"eit_playground\\\" -I/opt/ros/melodic/include -I/opt/ros/melodic/share/xmlrpcpp/cmake/../../../include/xmlrpcpp    -o CMakeFiles/offb_node.dir/src/offb_node.cpp.o -c /workspace/ros_ws/src/eit_playground/src/offb_node.cpp",
  "file": "/workspace/ros_ws/src/eit_playground/src/offb_node.cpp"
},
{
  "directory": "/workspace/ros_ws/build/eit_playground/gtest/googlemock",
  "command": "/usr/bin/c++  -DGTEST_CREATE_SHARED_LIBRARY=1 -Dgmock_main_EXPORTS -I/usr/src/googletest/googlemock/include -I/usr/src/googletest/googlemock -I/usr/src/googletest/googletest/include -I/usr/src/googletest/googletest  -fPIC    -Wall -Wshadow -DGTEST_HAS_PTHREAD=1 -fexceptions -Wextra -Wno-unused-parameter -Wno-missing-field-initializers -o CMakeFiles/gmock_main.dir/__/googletest/src/gtest-all.cc.o -c /usr/src/googletest/googletest/src/gtest-all.cc",
  "file": "/usr/src/googletest/googletest/src/gtest-all.cc"
},
{
  "directory": "/workspace/ros_ws/build/eit_playground/gtest/googlemock",
  "command": "/usr/bin/c++  -DGTEST_CREATE_SHARED_LIBRARY=1 -Dgmock_main_EXPORTS -I/usr/src/googletest/googlemock/include -I/usr/src/googletest/googlemock -I/usr/src/googletest/googletest/include -I/usr/src/googletest/googletest  -fPIC    -Wall -Wshadow -DGTEST_HAS_PTHREAD=1 -fexceptions -Wextra -Wno-unused-parameter -Wno-missing-field-initializers -o CMakeFiles/gmock_main.dir/src/gmock-all.cc.o -c /usr/src/googletest/googlemock/src/gmock-all.cc",
  "file": "/usr/src/googletest/googlemock/src/gmock-all.cc"
},
{
  "directory": "/workspace/ros_ws/build/eit_playground/gtest/googlemock",
  "command": "/usr/bin/c++  -DGTEST_CREATE_SHARED_LIBRARY=1 -Dgmock_main_EXPORTS -I/usr/src/googletest/googlemock/include -I/usr/src/googletest/googlemock -I/usr/src/googletest/googletest/include -I/usr/src/googletest/googletest  -fPIC    -Wall -Wshadow -DGTEST_HAS_PTHREAD=1 -fexceptions -Wextra -Wno-unused-parameter -Wno-missing-field-initializers -o CMakeFiles/gmock_main.dir/src/gmock_main.cc.o -c /usr/src/googletest/googlemock/src/gmock_main.cc",
  "file": "/usr/src/googletest/googlemock/src/gmock_main.cc"
},
{
  "directory": "/workspace/ros_ws/build/eit_playground/gtest/googlemock",
  "command": "/usr/bin/c++  -DGTEST_CREATE_SHARED_LIBRARY=1 -Dgmock_EXPORTS -I/usr/src/googletest/googlemock/include -I/usr/src/googletest/googlemock -I/usr/src/googletest/googletest/include -I/usr/src/googletest/googletest  -fPIC    -Wall -Wshadow -DGTEST_HAS_PTHREAD=1 -fexceptions -Wextra -Wno-unused-parameter -Wno-missing-field-initializers -o CMakeFiles/gmock.dir/__/googletest/src/gtest-all.cc.o -c /usr/src/googletest/googletest/src/gtest-all.cc",
  "file": "/usr/src/googletest/googletest/src/gtest-all.cc"
},
{
  "directory": "/workspace/ros_ws/build/eit_playground/gtest/googlemock",
  "command": "/usr/bin/c++  -DGTEST_CREATE_SHARED_LIBRARY=1 -Dgmock_EXPORTS -I/usr/src/googletest/googlemock/include -I/usr/src/googletest/googlemock -I/usr/src/googletest/googletest/include -I/usr/src/googletest/googletest  -fPIC    -Wall -Wshadow -DGTEST_HAS_PTHREAD=1 -fexceptions -Wextra -Wno-unused-parameter -Wno-missing-field-initializers -o CMakeFiles/gmock.dir/src/gmock-all.cc.o -c /usr/src/googletest/googlemock/src/gmock-all.cc",
  "file": "/usr/src/googletest/googlemock/src/gmock-all.cc"
},
{
  "directory": "/workspace/ros_ws/build/eit_playground/gtest/googlemock/gtest",
  "command": "/usr/bin/c++  -DGTEST_CREATE_SHARED_LIBRARY=1 -Dgtest_main_EXPORTS -I/usr/src/googletest/googletest/include -I/usr/src/googletest/googletest  -fPIC    -Wall -Wshadow -DGTEST_HAS_PTHREAD=1 -fexceptions -Wextra -Wno-unused-parameter -Wno-missing-field-initializers -o CMakeFiles/gtest_main.dir/src/gtest_main.cc.o -c /usr/src/googletest/googletest/src/gtest_main.cc",
  "file": "/usr/src/googletest/googletest/src/gtest_main.cc"
},
{
  "directory": "/workspace/ros_ws/build/eit_playground/gtest/googlemock/gtest",
  "command": "/usr/bin/c++  -DGTEST_CREATE_SHARED_LIBRARY=1 -Dgtest_EXPORTS -I/usr/src/googletest/googletest/include -I/usr/src/googletest/googletest  -fPIC    -Wall -Wshadow -DGTEST_HAS_PTHREAD=1 -fexceptions -Wextra -Wno-unused-parameter -Wno-missing-field-initializers -o CMakeFiles/gtest.dir/src/gtest-all.cc.o -c /usr/src/googletest/googletest/src/gtest-all.cc",
  "file": "/usr/src/googletest/googletest/src/gtest-all.cc"
}
]