%time,field.header.seq,field.header.stamp,field.header.frame_id,field.channels0,field.channels1,field.channels2,field.channels3,field.channels4,field.channels5,field.channels6,field.channels7,field.channels8,field.channels9,field.channels10,field.channels11,field.channels12,field.channels13,field.channels14,field.channels15
28380000000,282,28376000000,,1391,1387,1391,1387,1392,1386,1500,1000,0,0,0,0,0,0,0,0
28476000000,283,28476000000,,1391,1388,1389,1390,1390,1389,1500,1000,0,0,0,0,0,0,0,0
28576000000,284,28576000000,,1389,1391,1389,1390,1389,1391,1500,1000,0,0,0,0,0,0,0,0
28676000000,285,28676000000,,1387,1389,1389,1388,1391,1386,1500,1000,0,0,0,0,0,0,0,0
28776000000,286,28776000000,,1390,1389,1387,1392,1390,1390,1500,1000,0,0,0,0,0,0,0,0
28876000000,287,28876000000,,1390,1390,1387,1392,1386,1393,1500,1000,0,0,0,0,0,0,0,0
28976000000,288,28976000000,,1391,1390,1390,1391,1391,1390,1500,1000,0,0,0,0,0,0,0,0
29076000000,289,29076000000,,1385,1387,1386,1387,1385,1388,1500,1000,0,0,0,0,0,0,0,0
29176000000,290,29176000000,,1391,1386,1390,1388,1391,1386,1500,1000,0,0,0,0,0,0,0,0
29276000000,291,29276000000,,1394,1387,1389,1392,1395,1386,1500,1000,0,0,0,0,0,0,0,0
29376000000,292,29376000000,,1393,1388,1388,1393,1389,1392,1500,1000,0,0,0,0,0,0,0,0
29476000000,293,29476000000,,1388,1391,1389,1391,1389,1390,1500,1000,0,0,0,0,0,0,0,0
29576000000,294,29576000000,,1389,1393,1393,1389,1393,1389,1500,1000,0,0,0,0,0,0,0,0
29676000000,295,29676000000,,1389,1392,1393,1388,1389,1392,1500,1000,0,0,0,0,0,0,0,0
29776000000,296,29776000000,,1387,1394,1391,1390,1386,1395,1500,1000,0,0,0,0,0,0,0,0
29876000000,297,29876000000,,1390,1388,1385,1393,1384,1393,1500,1000,0,0,0,0,0,0,0,0
29976000000,298,29976000000,,1392,1389,1385,1396,1387,1394,1500,1000,0,0,0,0,0,0,0,0
30076000000,299,30076000000,,1389,1391,1391,1389,1393,1387,1500,1000,0,0,0,0,0,0,0,0
30176000000,300,30176000000,,1391,1390,1393,1388,1389,1392,1500,1000,0,0,0,0,0,0,0,0
30276000000,301,30276000000,,1389,1387,1386,1390,1388,1388,1500,1000,0,0,0,0,0,0,0,0
30376000000,302,30376000000,,1391,1388,1388,1392,1389,1390,1500,1000,0,0,0,0,0,0,0,0
30476000000,303,30476000000,,1390,1392,1388,1393,1388,1393,1500,1000,0,0,0,0,0,0,0,0
30576000000,304,30576000000,,1392,1390,1392,1391,1394,1389,1500,1000,0,0,0,0,0,0,0,0
30676000000,305,30676000000,,1389,1384,1388,1386,1389,1384,1500,1000,0,0,0,0,0,0,0,0
30776000000,306,30776000000,,1385,1392,1389,1389,1384,1393,1500,1000,0,0,0,0,0,0,0,0
30876000000,307,30876000000,,1388,1394,1391,1391,1388,1394,1500,1000,0,0,0,0,0,0,0,0
30976000000,308,30976000000,,1388,1391,1388,1391,1387,1393,1500,1000,0,0,0,0,0,0,0,0
31076000000,309,31076000000,,1389,1392,1387,1395,1389,1393,1500,1000,0,0,0,0,0,0,0,0
31176000000,310,31176000000,,1387,1393,1391,1389,1390,1390,1500,1000,0,0,0,0,0,0,0,0
31276000000,311,31276000000,,1393,1389,1391,1391,1393,1389,1500,1000,0,0,0,0,0,0,0,0
31376000000,312,31376000000,,1392,1388,1385,1395,1389,1391,1500,1000,0,0,0,0,0,0,0,0
31476000000,313,31476000000,,1388,1389,1388,1390,1387,1391,1500,1000,0,0,0,0,0,0,0,0
31576000000,314,31576000000,,1389,1391,1387,1393,1389,1391,1500,1000,0,0,0,0,0,0,0,0
31676000000,315,31676000000,,1392,1390,1388,1393,1389,1393,1500,1000,0,0,0,0,0,0,0,0
31776000000,316,31776000000,,1395,1386,1391,1390,1391,1390,1500,1000,0,0,0,0,0,0,0,0
31876000000,317,31876000000,,1386,1388,1388,1386,1389,1386,1500,1000,0,0,0,0,0,0,0,0
31976000000,318,31976000000,,1392,1389,1388,1393,1392,1389,1500,1000,0,0,0,0,0,0,0,0
32076000000,319,32076000000,,1393,1389,1391,1390,1391,1390,1500,1000,0,0,0,0,0,0,0,0
32176000000,320,32176000000,,1391,1390,1391,1390,1390,1391,1500,1000,0,0,0,0,0,0,0,0
32276000000,321,32276000000,,1389,1390,1386,1392,1389,1389,1500,1000,0,0,0,0,0,0,0,0
32376000000,322,32376000000,,1392,1388,1384,1395,1385,1395,1500,1000,0,0,0,0,0,0,0,0
32476000000,323,32476000000,,1393,1389,1390,1391,1393,1388,1500,1000,0,0,0,0,0,0,0,0
32576000000,324,32576000000,,1393,1386,1390,1390,1391,1388,1500,1000,0,0,0,0,0,0,0,0
32676000000,325,32676000000,,1386,1389,1384,1390,1385,1390,1500,1000,0,0,0,0,0,0,0,0
32776000000,326,32776000000,,1389,1391,1389,1391,1388,1392,1500,1000,0,0,0,0,0,0,0,0
32876000000,327,32876000000,,1391,1392,1390,1392,1389,1394,1500,1000,0,0,0,0,0,0,0,0
32976000000,328,32976000000,,1390,1389,1389,1389,1390,1388,1500,1000,0,0,0,0,0,0,0,0
33076000000,329,33076000000,,1387,1385,1383,1388,1385,1387,1500,1000,0,0,0,0,0,0,0,0
33176000000,330,33176000000,,1385,1391,1391,1385,1389,1387,1500,1000,0,0,0,0,0,0,0,0
33276000000,331,33276000000,,1390,1390,1390,1390,1388,1392,1500,1000,0,0,0,0,0,0,0,0
33376000000,332,33376000000,,1393,1387,1390,1390,1388,1392,1500,1000,0,0,0,0,0,0,0,0
33476000000,333,33476000000,,1388,1387,1387,1388,1386,1388,1500,1000,0,0,0,0,0,0,0,0
33576000000,334,33576000000,,1389,1391,1392,1387,1390,1390,1500,1000,0,0,0,0,0,0,0,0
33676000000,335,33676000000,,1394,1390,1394,1390,1397,1388,1500,1000,0,0,0,0,0,0,0,0
33776000000,336,33776000000,,1392,1389,1390,1391,1391,1391,1500,1000,0,0,0,0,0,0,0,0
33876000000,337,33876000000,,1384,1390,1388,1387,1385,1390,1500,1000,0,0,0,0,0,0,0,0
33976000000,338,33976000000,,1389,1391,1389,1390,1391,1388,1500,1000,0,0,0,0,0,0,0,0
34076000000,339,34076000000,,1391,1390,1392,1388,1391,1389,1500,1000,0,0,0,0,0,0,0,0
34176000000,340,34176000000,,1388,1392,1392,1387,1391,1388,1500,1000,0,0,0,0,0,0,0,0
34276000000,341,34276000000,,1385,1389,1384,1391,1383,1391,1500,1000,0,0,0,0,0,0,0,0
34376000000,342,34376000000,,1389,1389,1386,1393,1386,1392,1500,1000,0,0,0,0,0,0,0,0
34476000000,343,34476000000,,1392,1389,1392,1389,1395,1386,1500,1000,0,0,0,0,0,0,0,0
34576000000,344,34576000000,,1393,1387,1391,1389,1392,1389,1500,1000,0,0,0,0,0,0,0,0
34676000000,345,34676000000,,1387,1388,1388,1387,1386,1389,1500,1000,0,0,0,0,0,0,0,0
34776000000,346,34776000000,,1390,1388,1390,1389,1392,1386,1500,1000,0,0,0,0,0,0,0,0
34876000000,347,34876000000,,1394,1389,1390,1392,1392,1390,1500,1000,0,0,0,0,0,0,0,0
34976000000,348,34976000000,,1391,1391,1389,1393,1389,1393,1500,1000,0,0,0,0,0,0,0,0
35076000000,349,35076000000,,1385,1390,1388,1388,1389,1387,1500,1000,0,0,0,0,0,0,0,0
35176000000,350,35176000000,,1388,1389,1388,1389,1390,1387,1500,1000,0,0,0,0,0,0,0,0
35276000000,351,35276000000,,1392,1393,1392,1393,1394,1391,1500,1000,0,0,0,0,0,0,0,0
35376000000,352,35376000000,,1390,1391,1393,1387,1392,1388,1500,1000,0,0,0,0,0,0,0,0
35476000000,353,35476000000,,1392,1384,1385,1391,1388,1388,1500,1000,0,0,0,0,0,0,0,0
35576000000,354,35576000000,,1392,1390,1389,1393,1389,1393,1500,1000,0,0,0,0,0,0,0,0
35676000000,355,35676000000,,1388,1393,1391,1389,1385,1396,1500,1000,0,0,0,0,0,0,0,0
35776000000,356,35776000000,,1387,1393,1390,1391,1388,1392,1500,1000,0,0,0,0,0,0,0,0
35876000000,357,35876000000,,1388,1392,1387,1393,1386,1395,1500,1000,0,0,0,0,0,0,0,0
35976000000,358,35976000000,,1390,1389,1388,1391,1388,1391,1500,1000,0,0,0,0,0,0,0,0
36076000000,359,36076000000,,1390,1392,1390,1392,1390,1392,1500,1000,0,0,0,0,0,0,0,0
36176000000,360,36176000000,,1388,1393,1388,1393,1387,1394,1500,1000,0,0,0,0,0,0,0,0
36276000000,361,36276000000,,1388,1388,1388,1388,1387,1389,1500,1000,0,0,0,0,0,0,0,0
36376000000,362,36376000000,,1389,1389,1389,1389,1387,1391,1500,1000,0,0,0,0,0,0,0,0
36476000000,363,36476000000,,1391,1390,1391,1390,1390,1391,1500,1000,0,0,0,0,0,0,0,0
36576000000,364,36576000000,,1390,1391,1393,1388,1391,1390,1500,1000,0,0,0,0,0,0,0,0
36676000000,365,36676000000,,1387,1391,1386,1392,1388,1390,1500,1000,0,0,0,0,0,0,0,0
36776000000,366,36776000000,,1391,1391,1388,1394,1389,1392,1500,1000,0,0,0,0,0,0,0,0
36876000000,367,36876000000,,1390,1391,1387,1394,1390,1391,1500,1000,0,0,0,0,0,0,0,0
36976000000,368,36976000000,,1391,1388,1388,1391,1389,1391,1500,1000,0,0,0,0,0,0,0,0
37076000000,369,37076000000,,1389,1390,1386,1393,1388,1392,1500,1000,0,0,0,0,0,0,0,0
37176000000,370,37176000000,,1391,1390,1391,1390,1392,1389,1500,1000,0,0,0,0,0,0,0,0
37276000000,371,37276000000,,1388,1392,1394,1387,1395,1386,1500,1000,0,0,0,0,0,0,0,0
37376000000,372,37376000000,,1391,1390,1387,1393,1387,1393,1500,1000,0,0,0,0,0,0,0,0
37476000000,373,37476000000,,1390,1389,1387,1392,1387,1392,1500,1000,0,0,0,0,0,0,0,0
37576000000,374,37576000000,,1389,1390,1388,1390,1389,1390,1500,1000,0,0,0,0,0,0,0,0
37676000000,375,37676000000,,1392,1389,1391,1390,1390,1390,1500,1000,0,0,0,0,0,0,0,0
37776000000,376,37776000000,,1388,1394,1392,1390,1392,1391,1500,1000,0,0,0,0,0,0,0,0
37876000000,377,37876000000,,1387,1388,1386,1389,1387,1388,1500,1000,0,0,0,0,0,0,0,0
37976000000,378,37976000000,,1387,1393,1394,1386,1392,1388,1500,1000,0,0,0,0,0,0,0,0
38076000000,379,38076000000,,1391,1392,1390,1393,1389,1394,1500,1000,0,0,0,0,0,0,0,0
38176000000,380,38176000000,,1388,1391,1387,1392,1390,1389,1500,1000,0,0,0,0,0,0,0,0
38276000000,381,38276000000,,1388,1389,1385,1391,1385,1392,1500,1000,0,0,0,0,0,0,0,0
38376000000,382,38376000000,,1393,1386,1385,1395,1389,1391,1500,1000,0,0,0,0,0,0,0,0
