%time,field.header.seq,field.header.stamp,field.header.frame_id,field.channels0,field.channels1,field.channels2,field.channels3,field.channels4,field.channels5,field.channels6,field.channels7,field.channels8,field.channels9,field.channels10,field.channels11,field.channels12,field.channels13,field.channels14,field.channels15
22476000000,221,22476000000,,1423,1426,1423,1427,1421,1428,1500,1000,0,0,0,0,0,0,0,0
22576000000,222,22576000000,,1427,1426,1426,1426,1424,1428,1500,1000,0,0,0,0,0,0,0,0
22676000000,223,22676000000,,1431,1420,1424,1426,1428,1422,1500,1000,0,0,0,0,0,0,0,0
22776000000,224,22776000000,,1428,1426,1426,1428,1428,1425,1500,1000,0,0,0,0,0,0,0,0
22876000000,225,22876000000,,1423,1424,1424,1424,1423,1425,1500,1000,0,0,0,0,0,0,0,0
22976000000,226,22976000000,,1424,1425,1420,1429,1423,1427,1500,1000,0,0,0,0,0,0,0,0
23072000000,227,23072000000,,1425,1427,1426,1426,1422,1430,1500,1000,0,0,0,0,0,0,0,0
23172000000,228,23172000000,,1424,1427,1426,1425,1424,1427,1500,1000,0,0,0,0,0,0,0,0
23276000000,229,23276000000,,1421,1429,1426,1425,1422,1428,1500,1000,0,0,0,0,0,0,0,0
23376000000,230,23376000000,,1426,1428,1425,1429,1424,1430,1500,1000,0,0,0,0,0,0,0,0
23476000000,231,23476000000,,1427,1425,1423,1430,1425,1427,1500,1000,0,0,0,0,0,0,0,0
23576000000,232,23576000000,,1424,1427,1427,1424,1426,1426,1500,1000,0,0,0,0,0,0,0,0
23676000000,233,23676000000,,1430,1423,1425,1428,1427,1426,1500,1000,0,0,0,0,0,0,0,0
23776000000,234,23776000000,,1431,1424,1427,1427,1430,1425,1500,1000,0,0,0,0,0,0,0,0
23872000000,235,23872000000,,1426,1427,1423,1430,1428,1426,1500,1000,0,0,0,0,0,0,0,0
23972000000,236,23972000000,,1427,1425,1425,1427,1424,1428,1500,1000,0,0,0,0,0,0,0,0
24076000000,237,24072000000,,1426,1423,1421,1428,1422,1427,1500,1000,0,0,0,0,0,0,0,0
24176000000,238,24176000000,,1430,1420,1424,1425,1429,1420,1500,1000,0,0,0,0,0,0,0,0
24276000000,239,24276000000,,1428,1423,1423,1428,1426,1425,1500,1000,0,0,0,0,0,0,0,0
24376000000,240,24376000000,,1429,1421,1422,1429,1424,1426,1500,1000,0,0,0,0,0,0,0,0
24476000000,241,24476000000,,1427,1422,1424,1425,1426,1424,1500,1000,0,0,0,0,0,0,0,0
24572000000,242,24572000000,,1426,1426,1428,1424,1428,1424,1500,1000,0,0,0,0,0,0,0,0
24672000000,243,24672000000,,1426,1427,1426,1427,1425,1428,1500,1000,0,0,0,0,0,0,0,0
24772000000,244,24772000000,,1428,1425,1428,1424,1431,1422,1500,1000,0,0,0,0,0,0,0,0
24876000000,245,24876000000,,1424,1425,1427,1422,1427,1422,1500,1000,0,0,0,0,0,0,0,0
24976000000,246,24976000000,,1428,1426,1430,1424,1429,1424,1500,1000,0,0,0,0,0,0,0,0
25076000000,247,25076000000,,1423,1427,1426,1424,1426,1424,1500,1000,0,0,0,0,0,0,0,0
25176000000,248,25176000000,,1427,1424,1423,1428,1425,1426,1500,1000,0,0,0,0,0,0,0,0
25276000000,249,25276000000,,1429,1423,1425,1427,1426,1425,1500,1000,0,0,0,0,0,0,0,0
25376000000,250,25376000000,,1430,1420,1423,1427,1430,1421,1500,1000,0,0,0,0,0,0,0,0
25472000000,251,25472000000,,1427,1424,1426,1425,1427,1424,1500,1000,0,0,0,0,0,0,0,0
25572000000,252,25572000000,,1427,1423,1427,1424,1428,1423,1500,1000,0,0,0,0,0,0,0,0
25676000000,253,25672000000,,1425,1422,1425,1422,1428,1419,1500,1000,0,0,0,0,0,0,0,0
25776000000,254,25776000000,,1426,1427,1426,1427,1426,1428,1500,1000,0,0,0,0,0,0,0,0
25876000000,255,25876000000,,1422,1427,1424,1425,1420,1429,1500,1000,0,0,0,0,0,0,0,0
25976000000,256,25976000000,,1428,1424,1424,1429,1427,1426,1500,1000,0,0,0,0,0,0,0,0
26076000000,257,26076000000,,1424,1424,1426,1422,1424,1424,1500,1000,0,0,0,0,0,0,0,0
26172000000,258,26172000000,,1423,1428,1429,1422,1424,1427,1500,1000,0,0,0,0,0,0,0,0
26276000000,259,26272000000,,1424,1430,1433,1421,1428,1426,1500,1000,0,0,0,0,0,0,0,0
26376000000,260,26376000000,,1420,1429,1427,1422,1422,1427,1500,1000,0,0,0,0,0,0,0,0
26476000000,261,26476000000,,1424,1426,1423,1428,1423,1427,1500,1000,0,0,0,0,0,0,0,0
26576000000,262,26576000000,,1430,1424,1424,1429,1427,1427,1500,1000,0,0,0,0,0,0,0,0
26676000000,263,26676000000,,1429,1424,1427,1426,1429,1423,1500,1000,0,0,0,0,0,0,0,0
26776000000,264,26776000000,,1429,1423,1425,1427,1431,1422,1500,1000,0,0,0,0,0,0,0,0
26872000000,265,26872000000,,1425,1427,1426,1426,1427,1426,1500,1000,0,0,0,0,0,0,0,0
26976000000,266,26976000000,,1423,1427,1427,1423,1424,1426,1500,1000,0,0,0,0,0,0,0,0
27076000000,267,27076000000,,1425,1429,1428,1425,1426,1427,1500,1000,0,0,0,0,0,0,0,0
27176000000,268,27176000000,,1424,1427,1427,1425,1425,1427,1500,1000,0,0,0,0,0,0,0,0
27276000000,269,27276000000,,1426,1423,1423,1426,1425,1425,1500,1000,0,0,0,0,0,0,0,0
27376000000,270,27376000000,,1425,1424,1423,1427,1422,1427,1500,1000,0,0,0,0,0,0,0,0
27472000000,271,27472000000,,1429,1423,1423,1429,1427,1425,1500,1000,0,0,0,0,0,0,0,0
27576000000,272,27576000000,,1425,1427,1423,1429,1424,1428,1500,1000,0,0,0,0,0,0,0,0
27676000000,273,27676000000,,1430,1419,1421,1429,1427,1423,1500,1000,0,0,0,0,0,0,0,0
27776000000,274,27776000000,,1428,1426,1423,1431,1425,1429,1500,1000,0,0,0,0,0,0,0,0
27876000000,275,27876000000,,1427,1428,1427,1427,1426,1429,1500,1000,0,0,0,0,0,0,0,0
27976000000,276,27976000000,,1430,1423,1424,1428,1429,1424,1500,1000,0,0,0,0,0,0,0,0
28072000000,277,28072000000,,1429,1420,1424,1425,1429,1419,1500,1000,0,0,0,0,0,0,0,0
28176000000,278,28176000000,,1429,1424,1426,1427,1430,1423,1500,1000,0,0,0,0,0,0,0,0
28276000000,279,28276000000,,1429,1423,1423,1429,1427,1425,1500,1000,0,0,0,0,0,0,0,0
28376000000,280,28376000000,,1430,1423,1426,1427,1428,1424,1500,1000,0,0,0,0,0,0,0,0
28476000000,281,28476000000,,1426,1423,1424,1425,1424,1425,1500,1000,0,0,0,0,0,0,0,0
28572000000,282,28572000000,,1426,1425,1427,1424,1426,1424,1500,1000,0,0,0,0,0,0,0,0
28676000000,283,28672000000,,1424,1427,1426,1425,1425,1426,1500,1000,0,0,0,0,0,0,0,0
28776000000,284,28776000000,,1426,1428,1427,1427,1426,1428,1500,1000,0,0,0,0,0,0,0,0
28876000000,285,28876000000,,1423,1425,1425,1423,1427,1421,1500,1000,0,0,0,0,0,0,0,0
28976000000,286,28976000000,,1427,1426,1424,1429,1426,1427,1500,1000,0,0,0,0,0,0,0,0
29076000000,287,29076000000,,1426,1427,1424,1429,1422,1431,1500,1000,0,0,0,0,0,0,0,0
29172000000,288,29172000000,,1427,1426,1426,1427,1426,1426,1500,1000,0,0,0,0,0,0,0,0
29272000000,289,29272000000,,1422,1423,1422,1423,1421,1425,1500,1000,0,0,0,0,0,0,0,0
29376000000,290,29376000000,,1427,1423,1426,1424,1427,1423,1500,1000,0,0,0,0,0,0,0,0
29476000000,291,29476000000,,1430,1423,1426,1427,1431,1422,1500,1000,0,0,0,0,0,0,0,0
29576000000,292,29576000000,,1429,1424,1425,1428,1426,1427,1500,1000,0,0,0,0,0,0,0,0
29676000000,293,29676000000,,1423,1424,1423,1424,1423,1424,1500,1000,0,0,0,0,0,0,0,0
29776000000,294,29776000000,,1424,1430,1430,1424,1429,1425,1500,1000,0,0,0,0,0,0,0,0
29876000000,295,29876000000,,1423,1428,1430,1422,1424,1428,1500,1000,0,0,0,0,0,0,0,0
29972000000,296,29972000000,,1423,1429,1427,1425,1424,1428,1500,1000,0,0,0,0,0,0,0,0
30072000000,297,30072000000,,1424,1426,1420,1430,1419,1431,1500,1000,0,0,0,0,0,0,0,0
30172000000,298,30172000000,,1428,1424,1423,1430,1424,1429,1500,1000,0,0,0,0,0,0,0,0
30272000000,299,30272000000,,1423,1429,1427,1425,1427,1425,1500,1000,0,0,0,0,0,0,0,0
30372000000,300,30372000000,,1428,1426,1428,1425,1425,1428,1500,1000,0,0,0,0,0,0,0,0
30476000000,301,30476000000,,1424,1422,1422,1424,1424,1422,1500,1000,0,0,0,0,0,0,0,0
30572000000,302,30572000000,,1430,1422,1423,1429,1427,1425,1500,1000,0,0,0,0,0,0,0,0
30672000000,303,30672000000,,1428,1427,1425,1429,1429,1425,1500,1000,0,0,0,0,0,0,0,0
30772000000,304,30772000000,,1427,1428,1429,1425,1431,1423,1500,1000,0,0,0,0,0,0,0,0
30872000000,305,30872000000,,1426,1421,1424,1423,1424,1423,1500,1000,0,0,0,0,0,0,0,0
30972000000,306,30972000000,,1422,1430,1425,1426,1422,1430,1500,1000,0,0,0,0,0,0,0,0
31072000000,307,31072000000,,1424,1430,1427,1427,1423,1431,1500,1000,0,0,0,0,0,0,0,0
31172000000,308,31172000000,,1423,1429,1428,1424,1423,1429,1500,1000,0,0,0,0,0,0,0,0
31272000000,309,31272000000,,1420,1424,1422,1422,1421,1422,1500,1000,0,0,0,0,0,0,0,0
31372000000,310,31372000000,,1421,1428,1425,1424,1424,1425,1500,1000,0,0,0,0,0,0,0,0
31476000000,311,31472000000,,1428,1426,1427,1427,1428,1426,1500,1000,0,0,0,0,0,0,0,0
31576000000,312,31572000000,,1428,1422,1420,1430,1425,1426,1500,1000,0,0,0,0,0,0,0,0
31672000000,313,31672000000,,1425,1423,1423,1424,1422,1426,1500,1000,0,0,0,0,0,0,0,0
31772000000,314,31772000000,,1422,1429,1425,1426,1424,1428,1500,1000,0,0,0,0,0,0,0,0
31872000000,315,31872000000,,1428,1425,1424,1430,1425,1428,1500,1000,0,0,0,0,0,0,0,0
31972000000,316,31972000000,,1428,1425,1426,1427,1425,1428,1500,1000,0,0,0,0,0,0,0,0
32076000000,317,32072000000,,1423,1424,1422,1424,1422,1424,1500,1000,0,0,0,0,0,0,0,0
32176000000,318,32176000000,,1429,1425,1427,1427,1430,1423,1500,1000,0,0,0,0,0,0,0,0
32272000000,319,32272000000,,1427,1427,1428,1425,1427,1427,1500,1000,0,0,0,0,0,0,0,0
32372000000,320,32372000000,,1428,1425,1427,1426,1425,1428,1500,1000,0,0,0,0,0,0,0,0
