steering wheel, acceleration,
-0.7, 2, 
-0.7, 2, 
-0.7, 2, 
-0.7, 2, 
-0.7, 2, 
-0.7, 2, 
-0.7, 2, 
-0.7, 2, 
-0.7, 2, 
-0.7, 2, 
-0.7, 2, 
-0.7, 2, 
-0.7, 2, 
-0.7, 2, 
-0.7, 2, 
-0.7, 2, 
-0.7, 2, 
-0.7, 2, 
-0.7, 2, 
-0.7, 2, 
-0.7, 2, 
-0.7, 2, 
-0.7, 2, 
-0.7, 2, 
-0.7, 2, 
-0.7, 2, 
-0.7, 2, 
-0.7, 2, 
-0.7, 2, 
-0.7, 2, 
-0.7, 2, 
-0.7, 2, 
-0.7, 2, 
-0.7, 2, 
-0.7, 2, 
-0.7, 2, 
-0.7, 2, 
-0.561851, 2, 
-0.7, 2, 
0.654295, 2, 
-0.7, 2, 
0.7, 2, 
-0.7, 2, 
0.7, 2, 
-0.7, 2, 
0.7, 2, 
-0.7, 2, 
0.7, 2, 
-0.7, 2, 
0.7, 2, 
-0.7, 2, 
0.7, 2, 
-0.7, 2, 
0.7, 2, 
-0.7, 2, 
0.7, 2, 
-0.7, 2, 
0.7, 2, 
-0.7, 2, 
0.7, 2, 
-0.7, 2, 
0.7, 2, 
-0.7, 2, 
0.7, 2, 
-0.7, 2, 
0.7, 2, 
-0.7, 2, 
0.7, 2, 
-0.7, 2, 
0.7, 2, 
-0.7, 2, 
0.7, 2, 
-0.7, 2, 
0.7, 2, 
-0.7, 2, 
0.7, 2, 
-0.7, 2, 
0.7, 2, 
-0.7, 2, 
0.7, 2, 
-0.7, 2, 
0.7, 2, 
-0.7, 2, 
0.7, 2, 
-0.7, 2, 
0.7, 2, 
-0.7, 2, 
0.7, 2, 
-0.7, 2, 
0.7, 2, 
-0.7, 2, 
0.7, 2, 
-0.7, 2, 
0.7, 2, 
-0.7, 2, 
0.7, 2, 
-0.7, 2, 
0.7, 2, 
-0.7, 2, 
0.7, 2, 
-0.7, 2, 
0.7, 2, 
-0.7, 2, 
0.7, 2, 
-0.7, 2, 
0.7, 2, 
-0.7, 2, 
0.7, 2, 
-0.7, 2, 
0.7, 2, 
-0.7, 2, 
0.7, 2, 
-0.7, 2, 
0.7, 2, 
-0.7, 2, 
0.7, 2, 
-0.7, 2, 
0.7, 2, 
-0.7, 2, 
0.7, 2, 
-0.7, 2, 
0.7, 2, 
-0.7, 2, 
0.7, 2, 
-0.7, 2, 
0.7, 2, 
-0.7, 2, 
0.7, 2, 
-0.7, 2, 
0.7, 2, 
-0.7, 2, 
0.7, 2, 
-0.7, 2, 
0.7, 2, 
-0.7, 2, 
0.7, 2, 
-0.7, 2, 
0.7, 2, 
-0.7, 2, 
0.7, 2, 
-0.7, 2, 
0.7, 2, 
-0.7, 2, 
0.7, 2, 
-0.7, 2, 
0.7, 2, 
-0.7, 2, 
0.7, 2, 
-0.7, 2, 
0.7, 2, 
-0.7, 2, 
0.7, 2, 
-0.7, 2, 
0.7, 2, 
-0.7, 2, 
0.7, 2, 
-0.7, 2, 
0.7, 2, 
-0.7, 2, 
0.7, 2, 
-0.7, 2, 
0.7, 2, 
-0.7, 2, 
0.7, 2, 
-0.7, 2, 
0.7, 1.84839, 
-0.7, 2, 
0.7, 1.28186, 
-0.7, 1.73187, 
0.7, 0.788977, 
-0.7, 1.2307, 
0.7, 0.382176, 
-0.7, 0.811069, 
0.7, 0.0465374, 
-0.7, 0.459386, 
0.7, -0.230195, 
-0.7, 0.158708, 
0.7, -0.457566, 
-0.7, -0.0941982, 
0.7, -0.643892, 
-0.7, -0.305492, 
0.7, -0.796171, 
-0.7, -0.482206, 
0.7, -0.92016, 
-0.7, -0.629892, 
0.7, -1.02063, 
-0.7, -0.753323, 
0.7, -1.10154, 
-0.7, -0.856473, 
0.7, -1.16617, 
-0.7, -0.942654, 
0.7, -1.21725, 
-0.7, -1.01463, 
0.7, -1.25705, 
-0.7, -1.07471, 
0.7, -1.28747, 
-0.7, -1.12483, 
0.695809, -1.32214, 
-0.7, -1.15747, 
0.689765, -1.3578, 
-0.7, -1.17751, 
0.68581, -1.38528, 
-0.7, -1.1937, 
0.683247, -1.40597, 
-0.7, -1.20628, 
0.681376, -1.42529, 
-0.7, -1.21606, 
0.679838, -1.44608, 
-0.7, -1.23007, 
0.678882, -1.46145, 
-0.7, -1.24025, 
0.678285, -1.47253, 
-0.7, -1.24741, 
0.677918, -1.48003, 
-0.7, -1.25106, 
0.677687, -1.48466, 
-0.7, -1.25283, 
0.677537, -1.48687, 
-0.7, -1.25661, 
0.676559, -1.503, 
-0.7, -1.26936, 
0.675851, -1.5162, 
-0.7, -1.27812, 
0.675409, -1.52531, 
-0.7, -1.28385, 
0.675117, -1.53123, 
-0.7, -1.30056, 
0.674172, -1.54877, 
-0.7, -1.31714, 
0.673355, -1.56549, 
-0.7, -1.32912, 
0.672856, -1.57718, 
-0.7, -1.3506, 
0.67251, -1.5854, 
-0.7, -1.3746, 
0.671508, -1.6074, 
-0.7, -1.3907, 
0.67088, -1.62359, 
-0.7, -1.41962, 
0.670565, -1.63327, 
-0.7, -1.44686, 
0.670211, -1.6441, 
-0.7, -1.47403, 
0.669535, -1.66287, 
-0.7, -1.50833, 
0.669207, -1.67417, 
-0.7, -1.54109, 
0.669135, -1.67865, 
-0.7, -1.59708, 
0.669027, -1.68401, 
-0.7, -1.65103, 
0.668842, -1.69311, 
-0.7, -1.7009, 
0.66892, -1.69371, 
-0.7, -1.74403, 
0.669162, -1.68754, 
-0.7, -1.78459, 
0.669264, -1.68513, 
-0.7, -1.82021, 
0.669348, -1.68717, 
-0.7, -1.85031, 
0.66953, -1.68345, 
-0.7, -1.87541, 
0.669755, -1.67459, 
-0.7, -1.89679, 
0.66995, -1.67443, 
-0.7, -1.91504, 
0.670105, -1.67545, 
-0.7, -1.92985, 
0.670338, -1.67854, 
-0.7, -1.94045, 
0.670642, -1.68666, 
-0.7, -1.94649, 
0.670962, -1.68756, 
-0.7, -1.94973, 
0.67127, -1.6858, 
-0.7, -1.94984, 
0.671488, -1.68173, 
-0.7, -1.93404, 
0.67164, -1.67651, 
-0.7, -1.91699, 
0.67176, -1.66962, 
-0.7, -1.90016, 
0.671796, -1.66171, 
-0.7, -1.89263, 
0.671815, -1.6518, 
-0.7, -1.88335, 
0.671809, -1.64041, 
-0.7, -1.87254, 
0.671824, -1.62776, 
-0.7, -1.86046, 
0.671806, -1.61391, 
-0.7, -1.84723, 
0.671772, -1.59908, 
-0.7, -1.83288, 
0.671725, -1.58338, 
-0.7, -1.81763, 
0.671663, -1.56701, 
-0.7, -1.80164, 
0.67159, -1.5501, 
-0.7, -1.78508, 
0.671509, -1.53274, 
-0.7, -1.76805, 
0.671426, -1.51502, 
-0.7, -1.75064, 
0.671345, -1.49701, 
-0.7, -1.73291, 
0.671271, -1.47879, 
-0.7, -1.71491, 
0.671208, -1.46042, 
-0.7, -1.6967, 
0.671163, -1.44195, 
-0.7, -1.67832, 
0.671138, -1.42344, 
-0.7, -1.65982, 
0.671097, -1.40488, 
-0.7, -1.64119, 
0.671139, -1.38642, 
-0.7, -1.62259, 
0.671219, -1.36803, 
-0.7, -1.60401, 
0.671343, -1.34976, 
-0.7, -1.58548, 
0.671519, -1.33162, 
-0.7, -1.56703, 
0.671748, -1.31359, 
-0.7, -1.54875, 
0.672028, -1.29564, 
-0.7, -1.53053, 
0.672358, -1.2778, 
-0.7, -1.51246, 
0.672746, -1.26013, 
-0.7, -1.49455, 
0.6732, -1.24269, 
-0.7, -1.47681, 
0.673726, -1.22551, 
-0.7, -1.45926, 
0.674331, -1.20856, 
-0.7, -1.4419, 
0.675015, -1.19185, 
-0.7, -1.42471, 
0.675788, -1.17536, 
-0.7, -1.40771, 
0.676687, -1.15914, 
-0.7, -1.39091, 
0.677825, -1.14309, 
-0.7, -1.37445, 
0.67898, -1.1272, 
-0.7, -1.35814, 
0.680344, -1.11161, 
-0.7, -1.34214, 
0.68189, -1.09685, 
-0.7, -1.32643, 
0.683557, -1.0817, 
-0.7, -1.31096, 
0.685253, -1.0673, 
-0.7, -1.29558, 
0.68703, -1.05324, 
-0.7, -1.2803, 
0.689372, -1.03951, 
-0.7, -1.26562, 
0.691692, -1.02533, 
-0.7, -1.251, 
0.694376, -1.01025, 
-0.7, -1.23684, 
0.697221, -0.996752, 
-0.7, -1.223, 
0.7, -0.985008, 
-0.7, -1.20905, 
0.7, -0.973256, 
-0.7, -1.19241, 
0.7, -0.960645, 
-0.7, -1.1758, 
0.7, -0.949632, 
-0.7, -1.15911, 
0.7, -0.938993, 
-0.7, -1.14242, 
0.7, -0.92872, 
-0.7, -1.12041, 
0.7, -0.919147, 
-0.7, -1.0952, 
0.7, -0.91045, 
-0.7, -1.07079, 
