       0.1
        10
0.00853982
  0.860372
  0.186037
   10.0009
0.00611328
   0.74825
  0.260862
   10.0015
-0.0051193
   0.76698
   0.33756
    10.001
-0.0148809
  0.710987
  0.408659
   9.99947
  -0.02904
  0.665184
  0.475177
   9.99656
-0.0467966
  0.735663
  0.548744
   9.99188
-0.0441485
  0.719462
   0.62069
   9.98747
 0.0357945
  0.703979
  0.691088
   9.99105
  0.078571
  0.797624
   0.77085
    9.9989
  0.139788
  0.799628
      -0.7
  -1.39628
      -0.7
  -1.12122
      -0.7
  0.187297
      -0.7
 -0.559922
      -0.7
 -0.458031
      -0.7
  0.704782
 -0.551308
 -0.162009
  0.234366
 -0.154823
  -0.12514
  0.936445
-0.0142788
 0.0200372